{
    "openapi": "3.0.0",
    "info": {
        "title": "Projeto Final - C{IN}EMA -IN Junior",
        "description": "Projeto Final do PS 24.1 da IN Junior, onde temos que realizar a construção de uma API REST utilizando o NodeJS",
        "version": "1.0.0",
        "contact": {
            "email": "viniciuspinheiro@id.uff.br"
        }
    },
    "paths": {
        "/api/filmes": {
            "post": {
                "tags": [
                    "Filmes"
                ],
                "summary": "Cria um novo filme",
                "description": "Cria um novo filme",
                "requestBody": {
                    "content": {
                        "application/json": {
                            "schema": {
                                "type": "object",
                                "properties": {
                                    "titulo": {
                                        "type": "string"
                                    },
                                    "urlImagemCapa": {
                                        "type": "string"
                                    },
                                    "sinopse": {
                                        "type": "string"
                                    }, 
                                    "genero": {
                                        "type": "string"
                                    }, 
                                    "classificacao": {
                                        "type": "integer"
                                    }, 
                                    "diretor": {
                                        "type": "string"
                                    }
                                },
                                "example": {
                                    "titulo" : "Duna 2",
                                    "urlImagemCapa": "urlDuna",
                                    "sinopse":  "sinopseDuna",
                                    "genero" : "ficcao cientifica",
                                    "classificacao": "4",
                                    "diretor" : "Dave"
                                }
                            }
                        }
                    }
                },
                "responses": {
                    "201": {
                        "description": "Filme criado!"
                    },
                    "400": {
                        "description": "Filme já existe!"
                    }
                }
            },
            "get": {
                "tags": [
                    "Filmes"
                ],
                "summarry": "Lista todos os filmes",
                "description": "Lista todos os filmes",
                "responses": {
                    "200": {
                        "description": "Success",
                        "content": {
                            "application/json": {
                                "schema": {
                                    "type": "array",
                                    "items": {
                                        "type": "object",
                                        "properties": {
                                            "id": {
                                                "type": "string"
                                            },
                                            "titulo": {
                                                "type": "string"
                                            },
                                            "urlImagemCapa": {
                                                "type": "string"
                                            },
                                            "sinopse": {
                                                "type": "string"
                                            }, 
                                            "genero": {
                                                "type": "string"
                                            }, 
                                            "classificacao": {
                                                "type": "integer"
                                            }, 
                                            "diretor": {
                                                "type": "string"
                                            }
                                        }
                                    }
                                }
                            }
                        }
                    }
                }
            }
        }
    }
}